{
    "derivative": {
        "args": ["solve_equation", "x ^ 4 + x ^ 3 + x ^ 2 = 28", "-i", "1.2,3.1"],
        "out": [
            "equation: (x^2 + x^3 + x^4 + -28) = 0",
            "methods: [\"derivative\"]",
            "roots: [2]"
        ]
    },
    "linear": {
        "args": ["solve_equation", "x+ x  =  1"],
        "out": [
            "equation: (2x + -1) = 0",
            "methods: [\"linear\"]",
            "roots: [1/2]"
        ]
    },
    "square": {
        "args": ["solve_equation", "x^2 - 3*x = 4"],
        "out": [
            "equation: (-3x + x^2 + -4) = 0",
            "methods: [\"square\"]",
            "roots: [4,-1]"
        ]
    },
    "separate": {
        "args": ["solve_equation", "x^3 + x^2 = 0"],
        "out": [
            "equation: (x^2 + x^3) = 0",
            "methods: [\"separate\", \"linear\", \"linear\"]",
            "roots: [0,-1]"
        ]
    },
    "long_sample": {
        "args": ["solve_equation", "3*x^5 + x^4 + x^3 + x^2 + x = 3*11^5 + 11^4 + 11^3 +11^2 + 11", "-i" ,"-10000000,10000000"],
        "out": [
            "equation: (x + x^2 + x^3 + x^4 + 3x^5 + -499257) = 0",
            "methods: [\"derivative\"]",
            "roots: [11]"
        ]
    },
    "round_accuracy_check": {
        "args": ["solve_equation", "x^18 + x^3 = 5 ^ 18 + 5 ^ 3", "-i", "-100,100"],
        "out": [
            "equation: (x^18 + x^3 + -3814697265750) = 0",
            "methods: [\"derivative\"]",
            "roots: [-5(20988295/1152921504606846976),5]"
        ]
    },
    "x_and_1_div_x_in_one_expression": {
        "args": ["solve_equation", "(x + 1) + x + 1/x = 0", "-i", "-100,100"],
        "out": [
            "equation: (x + 2x^2 + 1) = 0",
            "methods: [\"square\"]",
            "roots: []"
        ]
    },
    "x_and_1_div_x_in_one_expression_with_solution": {
        "args": ["solve_equation", "(x + 3) + x + 1/x = 0", "-i" ,"-100,100"],
        "out": [
            "equation: (3x + 2x^2 + 1) = 0",
            "methods: [\"square\"]",
            "roots: [-1/2,-1]"
        ]
    },
    "negate_even_exp": {
        "args": ["solve_equation", "1 - (1/(x^2)) = 0"],
        "out": [
            "equation: (-1x^-2 + 1) = 0",
            "methods: [\"var=val\"]",
            "roots: [1,-1]"
        ]
    }
}
